[
  {
    "objectCode":"STORE_MANAGER",
    "title":"Merchant",
    "level": 2,
    "npCharacterRequestCodes":["GREETING"],
    "scenarioCodes":["CHECKOUT_LANE"]

  },
  {
    "objectCode":"SECURITY_GUARD",
    "title":"Blacksmith",
    "level": 7,
    "npCharacterRequestCodes":["FOUND_EVERYTHING_QUESTION"],
    "scenarioCodes":["PRODUCE_SECTION"]

  },
  {
    "objectCode":"STORE_JANITOR",
    "title":"Beggar",
    "level": 4,
    "npCharacterRequestCodes":["PRODUCE_SPECIAL"],
    "scenarioCodes":["DEATH_DOME"]


  },
  {
    "objectCode":"PRODUCE_CLERK",
    "title":"Alchemist",
    "level": 1,
    "npCharacterRequestCodes":["MEAT_SPECIAL"],
    "scenarioCodes":["TREE_OF_K"]


  },
  {
    "objectCode":"BUTCHER",
    "title":"Priestess",
    "level": 12,
    "npCharacterRequestCodes":["CASH_CREDIT"],
    "scenarioCodes":["THE_HIVE"]


  },
  {
    "objectCode":"CASHIER",
    "title":"Margaretha Sorin, The Corrupted Priestess",
    "level": 6,
    "npCharacterRequestCodes":["ACCUSATION"],
    "scenarioCodes":["GOOP"]

  }
]
