[
  {
    "objectCode":"CHECKOUT_LANE",
    "difficulty": 1,
    "title":"Prontera",
    "scenarioDescription":"The Prontera bazaar is never devoid of commerce."
  },
  {
    "objectCode":"PRODUCE_SECTION",
    "difficulty": 4,
    "title":"Prontera Alley",
    "scenarioDescription":"This alley doesn't look suspicious at all."
  },
  {
    "objectCode":"DEATH_DOME",
    "difficulty": 6,
     "title":"Prontera Path",
    "scenarioDescription":"I can't believe I can see that church all the way from here."
},
  {
    "objectCode":"TREE_OF_K",
    "difficulty": 3,
    "title":"Prontera Central",
    "scenarioDescription":"The Prontera plaza is definitely less crowded."
  },
  {
    "objectCode":"THE_HIVE",
    "difficulty": 7,
    "title":"Prontera Church",
    "scenarioDescription":"The church is as huge as it ever was. Beautiful but creepy."
  },
  {
    "objectCode":"GOOP",
    "difficulty": 9,
    "title":"Prontera Church?",
    "scenarioDescription":"The Priestess transforms into a groteque beast and prepares to attack"
  },
  {
    "objectCode":"MEAT_COUNTER",
    "difficulty": 12,
    "title":"MLP",
    "scenarioDescription":"Rainbow Dash thinks Fluttershy's a tree."
  }
]
